<?xml version="1.0" encoding="UTF-8"?>
<svg width="471px" height="266px" viewBox="0 0 471 266" version="1.1" xmlns="http://www.w3.org/2000/svg" xmlns:xlink="http://www.w3.org/1999/xlink">
    <title>Spot-Forum</title>
    <defs>
        <radialGradient cx="50%" cy="77.7092896%" fx="50%" fy="77.7092896%" r="128.455818%" gradientTransform="translate(0.500000,0.777093),scale(0.564756,1.000000),rotate(-138.715224),translate(-0.500000,-0.777093)" id="radialGradient-1">
            <stop stop-color="#0B71A1" offset="0.0607052365%"></stop>
            <stop stop-color="#074E70" offset="100%"></stop>
        </radialGradient>
        <path d="M4,0 L467,0 C469.209139,-3.17995656e-14 471,1.790861 471,4 L471,266 L471,266 L0,266 L0,4 C-2.705415e-16,1.790861 1.790861,4.05812251e-16 4,0 Z" id="path-2"></path>
        <linearGradient x1="0%" y1="50%" x2="100%" y2="50%" id="linearGradient-4">
            <stop stop-color="#F8F9FC" offset="0%"></stop>
            <stop stop-color="#0B71A1" offset="100%"></stop>
        </linearGradient>
    </defs>
    <g id="Page-1" stroke="none" stroke-width="1" fill="none" fill-rule="evenodd">
        <g id="DON-blauw" transform="translate(-745.000000, -606.000000)">
            <g id="Group-6" transform="translate(745.000000, 605.000000)">
                <g id="Spot-Forum" transform="translate(0.000000, 1.000000)">
                    <mask id="mask-3" fill="white">
                        <use xlink:href="#path-2"></use>
                    </mask>
                    <use id="Mask" fill="url(#radialGradient-1)" xlink:href="#path-2"></use>
                    <g id="Group" mask="url(#mask-3)">
                        <g transform="translate(-0.000000, 0.000000)" id="Spot-illustration/Forum">
                            <g id="Forum" transform="translate(-42.903226, 0.000000)">
                                <path d="M-4.29032258e-05,171.613075 L-4.29032258e-05,257.419526 L207.365548,257.419526 L207.365548,171.613075 L-4.29032258e-05,171.613075 Z M77.9408173,196.639957 L122.274151,196.639957 C124.248717,196.639957 125.849419,198.240659 125.849419,200.215225 C125.849419,202.189792 124.248717,203.790494 122.274151,203.790494 L77.9408173,203.790494 C75.9662509,203.790494 74.3655485,202.189792 74.3655485,200.215225 C74.3655485,198.240659 75.9662509,196.639957 77.9408173,196.639957 L77.9408173,196.639957 Z M61.4944091,233.107698 L24.3116134,233.107698 L24.3116134,195.924903 L61.4944091,195.924903 L61.4944091,233.107698 Z M168.037592,232.392645 L77.9408173,232.392645 C75.9662509,232.392645 74.3655485,230.791942 74.3655485,228.817376 C74.3655485,226.842809 75.9662509,225.242107 77.9408173,225.242107 L168.037592,225.242107 C170.012158,225.242107 171.61286,226.842809 171.61286,228.817376 C171.61286,230.791942 170.012158,232.392645 168.037592,232.392645 Z M175.188129,218.091569 L77.9408173,218.091569 C75.9662509,218.091569 74.3655485,216.490867 74.3655485,214.516301 C74.3655485,212.541734 75.9662509,210.941032 77.9408173,210.941032 L175.188129,210.941032 C177.162696,210.941032 178.763398,212.541734 178.763398,214.516301 C178.763398,216.490867 177.162696,218.091569 175.188129,218.091569 Z" id="Shape" fill="url(#linearGradient-4)" fill-rule="nonzero" opacity="0.1"></path>
                                <path d="M328.925017,100.107627 L328.925017,185.914079 L536.290609,185.914079 L536.290609,100.107627 L328.925017,100.107627 Z M406.865877,125.134509 L451.199211,125.134509 C453.173777,125.134509 454.77448,126.735211 454.77448,128.709778 C454.77448,130.684344 453.173777,132.285046 451.199211,132.285046 L406.865877,132.285046 C404.891311,132.285046 403.290609,130.684344 403.290609,128.709778 C403.290609,126.735211 404.891311,125.134509 406.865877,125.134509 L406.865877,125.134509 Z M390.419469,161.602251 L353.236674,161.602251 L353.236674,124.419455 L390.419469,124.419455 L390.419469,161.602251 Z M496.962652,160.887197 L406.865877,160.887197 C404.891311,160.887197 403.290609,159.286495 403.290609,157.311928 C403.290609,155.337362 404.891311,153.736659 406.865877,153.736659 L496.962652,153.736659 C498.937218,153.736659 500.53792,155.337362 500.53792,157.311928 C500.53792,159.286495 498.937218,160.887197 496.962652,160.887197 Z M504.113189,146.586122 L406.865877,146.586122 C404.891311,146.586122 403.290609,144.985419 403.290609,143.010853 C403.290609,141.036286 404.891311,139.435584 406.865877,139.435584 L504.113189,139.435584 C506.087756,139.435584 507.688458,141.036286 507.688458,143.010853 C507.688458,144.985419 506.087756,146.586122 504.113189,146.586122 Z" id="Shape" fill="url(#linearGradient-4)" fill-rule="nonzero" opacity="0.1"></path>
                                <path d="M258.817078,28.5585323 L258.817078,114.364984 L466.182669,114.364984 L466.182669,28.5585323 L258.817078,28.5585323 Z M336.757938,53.585414 L381.091271,53.585414 C383.065838,53.585414 384.66654,55.1861164 384.66654,57.1606828 C384.66654,59.1352492 383.065838,60.7359516 381.091271,60.7359516 L336.757938,60.7359516 C334.783371,60.7359516 333.182669,59.1352492 333.182669,57.1606828 C333.182669,55.1861164 334.783371,53.585414 336.757938,53.585414 L336.757938,53.585414 Z M320.311522,90.0531559 L283.128727,90.0531559 L283.128727,52.8703602 L320.311522,52.8703602 L320.311522,90.0531559 Z M426.854712,89.3381022 L336.757938,89.3381022 C334.783371,89.3381022 333.182669,87.7373998 333.182669,85.7628333 C333.182669,83.7882669 334.783371,82.1875645 336.757938,82.1875645 L426.854712,82.1875645 C428.829278,82.1875645 430.429981,83.7882669 430.429981,85.7628333 C430.429981,87.7373998 428.829278,89.3381022 426.854712,89.3381022 Z M434.00525,75.0370269 L336.757938,75.0370269 C334.783371,75.0370269 333.182669,73.4363245 333.182669,71.4617581 C333.182669,69.4871916 334.783371,67.8864892 336.757938,67.8864892 L434.00525,67.8864892 C435.979816,67.8864892 437.580518,69.4871916 437.580518,71.4617581 C437.580518,73.4363245 435.979816,75.0370269 434.00525,75.0370269 Z" id="Shape" fill="url(#linearGradient-4)" fill-rule="nonzero" opacity="0.1"></path>
                                <path d="M571.383159,285.92232 L543.630857,272.04633 L543.630857,254.169986 C543.630901,249.428871 541.74752,244.881928 538.395045,241.529454 C535.042571,238.176979 530.495628,236.293642 525.754513,236.293642 L346.991072,236.293642 C342.249958,236.293642 337.703014,238.176979 334.35054,241.529454 C330.998066,244.881928 329.114728,249.428871 329.114728,254.169986 L329.114728,325.675362 C329.114728,335.548168 337.118266,343.551707 346.991072,343.551707 L525.754513,343.551707 C535.627319,343.551707 543.630794,335.548168 543.630857,325.675362 L543.630857,307.799018 L571.383159,293.922592 C572.898335,293.165051 573.855448,291.616453 573.855448,289.922456 C573.855448,288.228459 572.898335,286.679861 571.383159,285.92232 L571.383159,285.92232 Z" id="Path" fill="#E0E4EA" fill-rule="nonzero"></path>
                                <line x1="390.788094" y1="263.108137" x2="446.20476" y2="263.108137" id="Path" stroke="#9E9E9E" stroke-width="8.33333" stroke-linecap="round" stroke-linejoin="round"></line>
                                <circle id="Oval" fill="#9E9E9E" fill-rule="nonzero" cx="364.867409" cy="272.046309" r="14.3010753"></circle>
                                <path d="M450.484279,25.0268817 L450.484279,60.7796342 C450.484279,62.7542007 452.084981,64.3549031 454.059547,64.3549031 L489.812236,64.3549031 C491.786802,64.3549031 493.387504,62.7542007 493.387504,60.7796342 L493.387504,25.0268817 C493.387504,23.0523153 491.786802,21.4516129 489.812236,21.4516129 L454.059547,21.4516129 C452.084981,21.4516129 450.484279,23.0523153 450.484279,25.0268817 Z" id="Path" fill="#E0E4EA" fill-rule="nonzero" opacity="0.75"></path>
                                <g id="Group" opacity="0.5" transform="translate(450.483871, 35.752688)" fill="#262D30" fill-rule="nonzero">
                                    <path d="M0.197533602,21.3893532 C3.2691763,19.5721685 6.09427198,17.3673607 8.60325516,14.8292211 C9.82381667,13.6090158 10.830792,12.1924945 11.5821691,10.6387558 C11.9232639,9.92554413 12.1473732,9.16209304 12.2459035,8.37767715 C12.2561299,8.33115693 12.2709816,8.28577563 12.2902368,8.24221022 L12.2902368,6.27616274 C12.2175811,5.82130886 12.1199043,5.37080641 11.9976511,4.92670613 C11.2603637,2.50396282 9.25835667,0.677601184 6.77828022,0.165254902 C4.29820377,-0.347091379 1.73637175,0.536450141 0.0994067742,2.46870882 C0.0755057427,2.5002858 0.0533604192,2.53315407 0.0330712366,2.56716457 C0.0215445699,2.55599543 0.0114194086,2.54516952 0.000250268817,2.53400038 L0.000250268817,21.4469651 C0.0708028964,21.4521397 0.14085357,21.4316831 0.197533602,21.3893532 L0.197533602,21.3893532 Z" id="Path" opacity="0.2"></path>
                                </g>
                                <path d="M469.924531,34.8781774 L469.924531,36.8444394 C469.905347,36.8879124 469.890528,36.9331829 469.880291,36.9795846 C469.781744,37.7640233 469.557678,38.5275078 469.216678,39.2407919 C468.465255,40.7945418 467.458285,42.2110982 466.237764,43.431386 C463.72872,45.9694137 460.903613,48.1741406 457.831992,49.9912892 C457.724099,50.0744937 457.573671,50.0744937 457.465777,49.9912892 C455.01417,48.5271712 452.709522,46.8299624 450.583857,44.9232455 C449.058689,43.5798286 447.732133,42.0265255 446.643961,40.3099046 C445.43454,38.4051542 445.048789,36.0915394 445.574805,33.8974383 C446.131955,31.5729386 447.853666,29.703057 450.124374,28.9563316 C452.395082,28.2096061 454.890559,28.6926602 456.718596,30.2327877 C457.047943,30.5154342 457.337969,30.844788 457.667315,31.1692222 C457.687561,31.1352232 457.709718,31.1023996 457.73368,31.0709094 C459.370569,29.1384572 461.932487,28.2547751 464.412663,28.7671289 C466.892838,29.2794827 468.894887,31.1059874 469.632053,33.528871 C469.754293,33.9729169 469.851934,34.4233706 469.924531,34.8781774 L469.924531,34.8781774 Z" id="Path" fill="#F02B41" fill-rule="nonzero"></path>
                                <path d="M109.403269,67.9301504 L109.403269,103.682903 C109.403269,105.657469 111.003971,107.258172 112.978538,107.258172 L148.731226,107.258172 C150.705792,107.258172 152.306495,105.657469 152.306495,103.682903 L152.306495,67.9301504 C152.306495,65.955584 150.705792,64.3548816 148.731226,64.3548816 L112.978538,64.3548816 C111.003971,64.3548816 109.403269,65.955584 109.403269,67.9301504 L109.403269,67.9301504 Z" id="Path" fill="#E0E4EA" fill-rule="nonzero" opacity="0.75"></path>
                                <g id="Group" opacity="0.5" transform="translate(109.403226, 72.935484)" fill="#262D30" fill-rule="nonzero">
                                    <path d="M5.35408661,23.5886297 C6.00724942,24.071253 6.89782326,24.0750434 7.55507051,23.5979973 C8.21231776,23.1209513 8.48471287,22.2730497 8.22827382,21.5024747 L6.12256204,15.1912886 L11.5305137,11.322383 C12.1866466,10.8507224 12.463936,10.0098728 12.2170845,9.24043248 C11.970233,8.47099211 11.2555234,7.94839524 10.4474575,7.94647828 L10.4298242,7.94647828 L3.78066086,7.99954957 L1.77463473,1.65728726 C1.53075235,0.883633126 0.81320034,0.357762806 0.00201645161,0.357762806 L0.000100107527,0.357762806 L0.000100107527,19.6397739 L0.00393994624,19.6369781 L5.35408661,23.5886297 Z" id="Path" opacity="0.2"></path>
                                </g>
                                <path d="M123.014181,92.5995482 C122.615783,92.5991445 122.228017,92.4709744 121.907857,92.2338697 L116.557639,88.2821537 L111.206491,92.2338697 C110.553334,92.7152489 109.663685,92.7183586 109.007179,92.2415572 C108.350672,91.7647558 108.078412,90.917785 108.33412,90.1477504 L110.436986,83.8363569 L105.026289,79.9674513 C104.367523,79.4971296 104.088286,78.6549451 104.335566,77.8842132 C104.582845,77.1134812 105.299931,76.5909536 106.109359,76.5916825 L106.122388,76.5916825 L112.775248,76.644718 L114.782275,70.3026202 C115.02635,69.5288887 115.743974,69.0027818 116.55529,69.0027818 C117.366606,69.0027818 118.08423,69.5288887 118.328305,70.3026202 L120.334403,76.644718 L126.983559,76.5916825 L127.001235,76.5916825 C127.809272,76.5935886 128.523963,77.1161559 128.770817,77.8855645 C129.017672,78.654973 128.740406,79.4957963 128.084306,79.9674513 L122.676404,83.8363569 L124.782059,90.1477504 C124.970541,90.7158802 124.874819,91.3399569 124.524727,91.8254796 C124.174635,92.3110024 123.612739,92.5989381 123.01416,92.5995482 L123.014181,92.5995482 Z" id="Path" fill="#FFBC2C" fill-rule="nonzero"></path>
                                <path d="M159.457082,82.23124 L159.457082,117.983993 C159.457082,119.958559 161.057785,121.559261 163.032351,121.559261 L198.785039,121.559261 C200.759606,121.559261 202.360308,119.958559 202.360308,117.983993 L202.360308,82.23124 C202.360308,80.2566736 200.759606,78.6559712 198.785039,78.6559712 L163.032351,78.6559712 C161.057785,78.6559712 159.457082,80.2566736 159.457082,82.23124 L159.457082,82.23124 Z" id="Path" fill="#E0E4EA" fill-rule="nonzero" opacity="0.75"></path>
                                <path d="M187.369113,110.475907 C186.970715,110.475503 186.582949,110.347333 186.262789,110.110228 L180.912571,106.158519 L175.561423,110.110228 C174.908266,110.591607 174.018617,110.594717 173.36211,110.117916 C172.705604,109.641114 172.433344,108.794143 172.689052,108.024109 L174.791918,101.712722 L169.38122,97.8438168 C168.722465,97.3734902 168.443235,96.5313107 168.690513,95.7605837 C168.93779,94.9898566 169.654868,94.4673289 170.464291,94.468048 L170.477319,94.468048 L177.130179,94.5210835 L179.137207,88.1789857 C179.381282,87.4052542 180.098906,86.8791473 180.910222,86.8791473 C181.721537,86.8791473 182.439162,87.4052542 182.683237,88.1789857 L184.689335,94.5210835 L191.338491,94.468048 L191.356167,94.468048 C192.164198,94.4699637 192.878881,94.9925312 193.125733,95.7619349 C193.372586,96.5313386 193.095328,97.372157 192.439237,97.8438168 L187.031336,101.712722 L189.13699,108.024116 C189.325476,108.592245 189.229756,109.216323 188.879663,109.701846 C188.52957,110.187369 187.967671,110.475302 187.369091,110.475907 L187.369113,110.475907 Z" id="Path" fill="#FFBC2C" fill-rule="nonzero"></path>
                                <path d="M59.3494624,67.9301504 L59.3494624,103.682903 C59.3494624,105.657469 60.9501647,107.258172 62.9247312,107.258172 L98.6774194,107.258172 C100.651986,107.258172 102.252688,105.657469 102.252688,103.682903 L102.252688,67.9301504 C102.252688,65.955584 100.651986,64.3548816 98.6774194,64.3548816 L62.9247312,64.3548816 C60.9501647,64.3548816 59.3494624,65.955584 59.3494624,67.9301504 Z" id="Path" fill="#E0E4EA" fill-rule="nonzero" opacity="0.75"></path>
                                <g id="Group" opacity="0.5" transform="translate(59.349462, 72.935484)" fill="#262D30" fill-rule="nonzero">
                                    <path d="M5.35408661,23.5886297 C6.00724942,24.071253 6.89782326,24.0750434 7.55507051,23.5979973 C8.21231776,23.1209513 8.48471287,22.2730497 8.22827382,21.5024747 L6.12256204,15.1913172 L11.5305137,11.3224116 C12.1866466,10.850751 12.463936,10.0099015 12.2170845,9.24046108 C11.970233,8.47102071 11.2555234,7.94842384 10.4474575,7.94650688 L10.4298242,7.94650688 L3.78066086,7.99957817 L1.77446312,1.65731586 C1.53070161,0.883649175 0.81317597,0.357791384 0.00201645161,0.357791384 L-7.8655914e-05,0.357791384 L-7.8655914e-05,19.6398025 L0.0037611828,19.6370067 L5.35408661,23.5886297 Z" id="Path" opacity="0.2"></path>
                                </g>
                                <path d="M72.9603677,92.5995482 C72.5619696,92.5991445 72.1742039,92.4709744 71.8540437,92.2338697 L66.5038255,88.2821537 L61.1526778,92.2338697 C60.4995207,92.7152489 59.6098716,92.7183586 58.9533653,92.2415572 C58.296859,91.7647558 58.0245985,90.917785 58.2803068,90.1477504 L60.3831727,83.8363569 L54.9724753,79.9674513 C54.3137096,79.4971296 54.0344729,78.6549451 54.281752,77.8842132 C54.5290311,77.1134812 55.2461175,76.5909536 56.0555458,76.5916825 L56.068574,76.5916825 L62.7214342,76.644718 L64.7284615,70.3026202 C64.9725367,69.5288887 65.6901609,69.0027818 66.5014766,69.0027818 C67.3127923,69.0027818 68.0304165,69.5288887 68.2744917,70.3026202 L70.2805894,76.644718 L76.9297456,76.5916825 L76.9474217,76.5916825 C77.7554582,76.5935886 78.4701492,77.1161559 78.7170036,77.8855645 C78.9638581,78.654973 78.6865929,79.4957963 78.0304922,79.9674513 L72.6225906,83.8363569 L74.7282452,90.1477504 C74.9167271,90.7158802 74.8210056,91.3399569 74.4709134,91.8254796 C74.1208212,92.3110024 73.558925,92.5989381 72.9603463,92.5995482 L72.9603677,92.5995482 Z" id="Path" fill="#FFBC2C" fill-rule="nonzero"></path>
                                <path d="M156.397803,182.714935 C160.691858,170.766158 206.806055,162.55097 213.527253,174.126482 C220.24845,185.701994 220.24845,319.00469 220.24845,319.00469 C220.24845,319.00469 201.198238,329.366763 200.085229,320.124886 C198.972219,310.883009 188.136552,222.668235 188.136552,222.668235 C188.136552,222.668235 184.775699,317.838209 182.162027,322.365321 C179.548355,326.892434 157.517999,321.245125 157.517999,321.245125 C157.517999,321.245125 152.103741,194.663712 156.397803,182.714935 Z" id="Path" fill="#0B71A1" fill-rule="nonzero"></path>
                                <path d="M156.397803,182.714935 C160.691858,170.766158 206.806055,162.55097 213.527253,174.126482 C220.24845,185.701994 220.24845,319.00469 220.24845,319.00469 C220.24845,319.00469 201.198238,329.366763 200.085229,320.124886 C198.972219,310.883009 188.136552,222.668235 188.136552,222.668235 C188.136552,222.668235 184.775699,317.838209 182.162027,322.365321 C179.548355,326.892434 157.517999,321.245125 157.517999,321.245125 C157.517999,321.245125 152.103741,194.663712 156.397803,182.714935 Z" id="Path" fill="#000000" fill-rule="nonzero" opacity="0.2"></path>
                                <path d="M156.397803,182.714935 C160.691858,170.766158 206.806055,162.55097 213.527253,174.126482 C220.24845,185.701994 155.389048,189.455683 155.389048,189.455683 C155.461535,187.17714 155.800083,184.914877 156.397803,182.714935 Z" id="Path" fill="#262D30" fill-rule="nonzero" opacity="0.2"></path>
                                <path d="M149.303276,83.0180923 C145.113304,88.0070224 135.966965,121.978869 139.887734,133.426558 C143.77423,144.774147 148.432019,143.757183 157.766938,140.147685 C160.431422,140.925828 150.622672,179.717659 156.397818,182.714935 C162.172964,185.712212 199.603797,186.649833 213.527267,174.126482 C219.55537,168.551729 212.03382,132.866514 212.03382,132.866514 C212.03382,132.866514 219.597744,137.208091 227.965382,136.787118 C236.33302,136.366144 238.918333,127.63892 238.918333,127.63892 L224.515112,110.292803 C224.515112,110.292803 217.243108,82.459335 212.407221,77.4083096 C207.571334,72.3572842 184.122554,65.4684849 184.122554,65.4684849 C184.122554,65.4684849 155.749071,74.645442 149.303276,83.0180923 Z" id="Path" fill="#39870C" fill-rule="nonzero"></path>
                                <path d="M160.573188,107.087968 C160.125293,115.145365 158.508463,142.085874 158.508463,142.085874 C158.383197,142.893182 158.586023,143.717056 159.071753,144.373947 C159.557482,145.030837 160.285763,145.46617 161.094341,145.582958 L188.876132,149.595726 C190.441666,149.821834 191.921437,148.817283 192.289083,147.278823 L203.051257,102.243228 C203.242067,101.44476 203.103972,100.603107 202.668016,99.9074762 C202.23206,99.2118454 201.534825,98.7206086 200.733053,98.5441977 L171.761885,97.0610546 C178.617363,106.780452 161.021055,99.0305701 160.573188,107.087968 Z" id="Path" fill="#262D30" fill-rule="nonzero" opacity="0.2"></path>
                                <path d="M169.153833,93.1444048 L161.726198,141.013286 C161.60093,141.820594 161.803754,142.64447 162.289482,143.301361 C162.77521,143.958253 163.50349,144.393588 164.312068,144.510378 L192.093859,148.523145 C193.659394,148.749253 195.139164,147.744702 195.506811,146.206242 L206.268985,101.170647 C206.459797,100.372179 206.321703,99.5305253 205.885746,98.8348939 C205.44979,98.1392626 204.752554,97.6480262 203.950781,97.471617 L172.834451,90.6255636 C172.009527,90.4440692 171.146272,90.611695 170.44922,91.0887248 C169.752167,91.5657546 169.283345,92.3097396 169.153833,93.1444048 L169.153833,93.1444048 Z" id="Path" fill="#E0E4EA" fill-rule="nonzero"></path>
                                <path d="M142.149356,129.380019 C160.136741,119.081679 180.257918,114.833473 196.323431,113.811768 C199.931657,113.5823 199.209731,119.507422 197.912416,120.281575 C180.059462,130.934853 161.689552,144.006122 148.607157,143.086212 C142.288548,142.641892 136.583671,132.566549 142.149356,129.380019 Z" id="Path" fill="#906E26" fill-rule="nonzero"></path>
                                <path d="M185.024817,121.104487 C185.011023,115.328083 195.158637,101.938472 197.160201,102.382327 C199.161765,102.826183 194.408202,108.188421 196.973501,109.840338 C201.102936,112.498908 203.339882,106.200321 207.86422,109.280244 C212.388558,112.360166 204.916954,118.997731 202.672086,120.532108 C200.427217,122.066485 188.468072,126.329978 185.024817,121.104487 Z" id="Path" fill="#906E26" fill-rule="nonzero"></path>
                                <path d="M177.183172,44.5800912 L175.441037,71.691748 C185.48559,76.4753647 188.423188,75.032758 192.243856,71.691748 C192.927262,70.6193175 190.230765,42.7014734 190.230765,42.7014734 L177.183172,44.5800912 Z" id="Path" fill="#906E26" fill-rule="nonzero"></path>
                                <path d="M222.723202,128.850593 C222.349808,108.127112 225.508908,125.295553 232.343084,110.720283 C233.878004,107.446767 240.119187,113.175621 240.119187,113.175621 C241.432222,118.802853 240.622704,124.716709 237.845738,129.784081 C234.716569,135.291418 222.83874,135.262881 222.723202,128.850593 Z" id="Path" fill="#262D30" fill-rule="nonzero" opacity="0.2"></path>
                                <path d="M200.085229,319.30517 C200.085229,319.30517 202.64856,325.707046 203.196428,315.580176 C203.551445,309.018242 188.112833,220.471762 188.136503,221.848512 C188.176652,224.178558 200.085229,319.30517 200.085229,319.30517 Z" id="Path" fill="#262D30" fill-rule="nonzero" opacity="0.2"></path>
                                <rect id="Rectangle" fill="#616161" fill-rule="nonzero" x="356.96279" y="218.52924" width="14.6332392" height="14.6332392"></rect>
                                <path d="M319.702604,292.381737 C350.884447,232.900404 352.831238,218.051126 352.831238,218.051126 C352.831238,218.051126 411.345518,235.171351 428.97007,232.900404 C446.594622,230.629458 443.101213,203.861313 443.101213,203.861313 C443.101213,203.861313 423.939881,201.082178 402.170026,198.121798 C385.92615,195.912876 368.23,193.603045 355.958118,192.271557 C347.737038,191.379578 341.950265,190.926656 340.665185,191.237268 C334.890954,192.632938 296.381726,292.381737 296.381726,292.381737 L319.702604,292.381737 Z" id="Path" fill="#616161" fill-rule="nonzero"></path>
                                <path d="M355.958104,192.271736 C356.937727,192.271736 407.705601,223.69709 374.418547,224.610986 C365.460074,224.610986 449.026863,225.922395 436.203482,211.747348 C423.380101,197.572301 354.978494,192.271736 355.958104,192.271736 Z" id="Path" fill="#424242" fill-rule="nonzero" opacity="0.25"></path>
                                <path d="M444.077976,198.25231 C445.385925,197.845752 446.791263,198.481583 447.349347,199.732407 C449.69433,204.960236 454.451626,218.812308 446.278797,231.663597 C437.129241,246.050758 380.616547,250.912895 367.804121,251.83718 C366.356841,251.942455 365.247965,253.166822 365.28613,254.617424 L366.431382,312.51813 C366.453738,313.439078 366.008747,314.308837 365.248805,314.829542 C364.488863,315.350246 363.517111,315.451224 362.666345,315.097894 L342.867565,309.02043 C341.947804,308.641477 341.309705,307.788935 341.205386,306.799652 C340.237361,297.601794 335.723405,238.869816 341.377929,233.686499 C347.108026,228.433935 429.486739,202.770542 444.077976,198.25231 Z" id="Path" fill="#757575" fill-rule="nonzero"></path>
                                <path d="M500.343891,170.773702 C499.68331,169.441117 498.723191,168.279555 497.538735,167.379992 L451.983482,132.27136 C451.983482,132.27136 444.610984,128.18929 439.694646,134.236056 C434.778309,140.282823 432.815722,144.25697 438.473285,150.283543 C444.130847,156.310116 481.551613,173.696792 487.066844,175.69787 C492.582075,177.698947 500.343891,170.773702 500.343891,170.773702 Z" id="Path" fill="#F8F9FC" fill-rule="nonzero"></path>
                                <path d="M354.454861,136.649391 C354.454861,136.334006 354.698962,136.072429 355.013604,136.050777 C355.013604,136.050777 393.313084,131.900669 403.240784,130.583655 C413.168483,129.26664 447.263712,129.721807 448.920792,129.7218 C454.102322,129.7218 466.877694,143.750054 466.877694,143.750054 C467.209408,144.127138 455.39027,161.726649 455.39027,161.726649 C455.306866,161.844482 448.130522,159.057675 448.144465,159.201179 L451.641736,201.669352 C451.670925,201.971257 451.47024,202.247475 451.174091,202.313007 C451.174091,202.313007 420.845257,209.845462 407.178592,209.904733 C393.511927,209.963646 384.465188,195.391508 384.465188,195.391508 C384.266822,195.296335 384.136558,195.100115 384.125852,194.880359 L382.345683,160.52528 C382.329818,160.20041 382.058103,159.947275 381.732925,159.954424 L357.47371,164.660578 C356.608084,162.034587 356.013324,159.326942 355.698718,156.579913 C354.796234,148.313842 354.454861,136.649391 354.454861,136.649391 Z" id="Path" fill="#0B71A1" fill-rule="nonzero"></path>
                                <ellipse id="Oval" fill="#074E70" fill-rule="nonzero" transform="translate(358.090331, 157.457694) rotate(-85.000000) translate(-358.090331, -157.457694) " cx="358.090331" cy="157.457694" rx="7.07487065" ry="2.48930952"></ellipse>
                                <path d="M313.270059,80.368339 C312.577522,79.151196 314.421596,78.0428769 317.367982,77.9053935 C317.367982,77.9053935 321.856568,77.063239 322.053279,77.9053935 L334.959578,131.572038 C335.785035,134.568399 338.43801,136.698348 341.541955,136.856721 L356.620437,137.032052 C358.016363,137.03332 359.347976,137.619074 360.292204,138.647201 C361.236433,139.675327 361.706989,141.051873 361.58971,142.442864 L360.497451,157.297548 C360.49377,157.347643 360.468464,157.393655 360.428129,157.42359 C360.387794,157.453525 360.336425,157.464418 360.287411,157.45343 L330.911029,150.869072 C327.833651,150.01331 325.481698,147.526109 324.799157,144.405737 L315.40807,87.8717271 C314.924694,84.9619731 313.962617,81.5854892 313.270059,80.368339 Z" id="Path" fill="#F8F9FC" fill-rule="nonzero"></path>
                                <path d="M417.013234,133.167487 C417.23001,136.141138 411.645955,141.301674 404.540887,142.047668 C397.43582,142.793662 391.500287,138.84264 391.283504,135.868989 C391.066722,132.895338 396.650784,132.025139 403.755851,131.279137 C410.860919,130.533136 416.796451,130.193843 417.013234,133.167487 Z" id="Path" fill="#F8F9FC" fill-rule="nonzero"></path>
                                <path d="M396.72452,134.479704 C396.984199,138.418456 408.100632,138.061208 401.364168,140.439984 C396.551012,142.139603 391.500287,138.84264 391.283504,135.868989 C391.066722,132.895338 396.650784,132.025139 403.755851,131.279137 C410.860919,130.533136 396.528381,131.504622 396.72452,134.479704 Z" id="Path" fill="#E0E4EA" fill-rule="nonzero"></path>
                                <path d="M417.013234,133.167487 C417.040335,133.524792 418.306473,131.976207 409.248959,130.817992 C409.248959,130.817992 416.772618,129.995494 417.013234,133.167487 Z" id="Path" fill="#E0E4EA" fill-rule="nonzero"></path>
                                <path d="M412.842869,136.594368 L401.740894,137.471825 C398.918363,137.71876 396.430067,135.630832 396.183124,132.808301 L393.938077,107.147231 L411.223279,105.822651 L412.842869,136.594368 Z" id="Path" fill="#F8F9FC" fill-rule="nonzero"></path>
                                <path d="M448.379611,169.046954 L438.493535,157.797285 L435.63327,159.294064 C435.63327,159.294064 450.500861,186.806037 451.641736,201.669352 L448.379611,169.046954 Z" id="Path" fill="#074E70" fill-rule="nonzero"></path>
                                <image id="Bitmap" x="409.469796" y="131.801262" width="67.9301075" height="95.8172043" xlink:href="data:image/png;base64,iVBORw0KGgoAAAANSUhEUgAAAF8AAACGCAYAAAC7fVYSAAAAAXNSR0IArs4c6QAAAbFJREFUeAHt0sEJADAMA7G2+++c0Cn0OS9wIHxn5jQj8Ey26hcIH/4g/PChAEz3/PChAEz3/PChAEz3/PChAEz3/PChAEz3/PChAEz3/PChAEz3/PChAEz3/PChAEz3/PChAEz3/PChAEz3/PChAEz3/PChAEz3/PChAEz3/PChAEz3/PChAEz3/PChAEz3/PChAEz3/PChAEz3/PChAEz3/PChAEz3/PChAEz3/PChAEz3/PChAEz3/PChAEz3/PChAEz3/PChAEz3/PChAEz3/PChAEz3/PChAEz3/PChAEz3/PChAEz3/PChAEz3/PChAEz3/PChAEz3/PChAEz3/PChAEz3/PChAEz3/PChAEz3/PChAEz3/PChAEz3/PChAEz3/PChAEz3/PChAEz3/PChAEz3/PChAEz3/PChAEz3/PChAEz3/PChAEz3/PChAEz3/PChAEz3/PChAEz3/PChAEz3/PChAEz3/PChAEz3/PChAEz3/PChAEz3/PChAEz3/PChAEz3/PChAEz3/PChAEz3/PChAEz3/PChAEz3/PChAEz3/PChAEz3fIi/QdEECeseVOgAAAAASUVORK5CYII="></image>
                                <path d="M382.344002,101.478485 C382.344002,112.141145 385.754609,126.594505 395.449165,124.419033 C411.770174,120.756585 416.666583,112.141145 416.666583,101.478485 C416.666583,90.8158251 411.128377,78.9542916 401.650454,78.9542916 C393.539835,78.9542916 382.344002,82.1720335 382.806027,97.0097781 C382.851655,98.4748303 382.344002,99.9402687 382.344002,101.478485 Z" id="Path" fill="#F8F9FC" fill-rule="nonzero"></path>
                                <path d="M379.800492,87.3756657 C381.085226,89.2483509 382.958026,90.6388803 385.122272,91.327017 L392.091944,93.1373258 C394.102371,93.7608458 395.55542,95.5120552 395.797303,97.6030082 L395.938883,99.6646869 C396.073585,101.626466 397.380618,102.156342 398.843396,100.842187 L400.649879,99.2192513 C402.26516,97.8912327 404.528061,97.6855109 406.356344,98.7004727 L408.200068,99.8324028 C409.960016,101.042183 410.923256,103.112993 410.71469,105.238431 L409.19317,115.345001 C408.900434,117.289489 410.13574,118.506196 411.938261,118.048798 C414.040452,117.366936 415.856362,116.005653 417.100399,114.179041 L419.37417,110.513862 C420.536738,108.477613 421.307695,106.241658 421.647176,103.921609 L422.915853,92.3077776 C423.038664,90.047509 422.375493,87.8143862 421.038922,85.9875104 L417.544648,81.7204485 C416.008662,80.0331687 413.979833,78.8730718 411.746634,78.4051089 L409.258033,78.0182648 C407.223914,77.7105891 405.164623,77.6021759 403.109443,77.6945671 C401.548474,77.8188672 399.980094,77.8188672 398.419126,77.6945671 C397.32563,77.6036954 396.339243,77.0018332 395.758268,76.0709946 C395.435779,75.3020473 393.735467,75.3969063 391.979731,76.2817853 C390.12744,77.1972342 388.137166,77.8017294 386.088632,78.0710572 C384.659038,78.1469269 383.281401,78.6322293 382.119897,79.4691303 C381.158148,80.4295487 380.245655,81.438058 379.385925,82.4907831 C378.580667,83.4829631 378.759424,85.6683962 379.783152,87.3472924 L379.800492,87.3756657 Z" id="Path" fill="#262D30" fill-rule="nonzero"></path>
                                <path d="M314.172457,82.0183828 C311.168931,82.1637318 306.18625,75.4765132 309.913597,74.0624015 C309.914398,74.062666 305.676767,70.445824 310.700492,70.7900652 C309.499702,70.7077839 306.674861,67.1566839 309.735706,67.1566839 C315.544188,67.1566839 306.376583,65.5470979 314.499995,65.322521 C328.694713,64.930078 329.407142,81.2811338 314.172457,82.0183828 Z" id="Path" fill="#F8F9FC" fill-rule="nonzero"></path>
                                <path d="M319.10296,69.1499177 C318.97636,64.6385302 319.318319,60.1261846 320.123342,55.6853982 C320.867442,51.3384678 321.87691,47.0411571 323.146081,42.8175695 C324.403585,38.5904457 325.914162,34.4427715 327.669633,30.397007 C329.428735,26.2417396 331.609151,22.2777385 334.176694,18.5671575 L334.216322,18.5116408 C334.27538,18.4290264 334.385254,18.4007819 334.476832,18.4446733 C334.56841,18.4885647 334.615218,18.5919037 334.587814,18.6896891 L332.803676,25.042427 L330.955634,31.3759585 L327.256067,44.042378 L323.419289,56.667546 L321.498984,62.9797903 L319.51408,69.2724708 C319.483602,69.3691605 319.388132,69.4300377 319.28761,69.4168824 C319.187087,69.4037271 319.110498,69.3203328 319.105928,69.2190563 L319.10296,69.1499177 Z" id="Path" fill="#616161" fill-rule="nonzero"></path>
                                <path d="M324.17016,56.496498 C336.249563,47.3734702 367.025084,76.3959294 374.031081,69.6818534 C377.636482,66.2267136 385.147721,37.9195799 382.96946,37.9195799 C364.266471,40.0788922 348.426872,15.3267412 335.166893,19.5950044" id="Path" fill="#FFBC2C" fill-rule="nonzero"></path>
                                <path d="M324.17016,56.4966124 C325.642384,55.3847038 329.060134,54.9682422 329.343109,54.7270474 C332.818177,51.6905001 334.727021,20.5562154 336.883737,19.2020395 C336.30232,19.2893522 335.728384,19.4207503 335.166893,19.5950974" id="Path" fill="#C69026" fill-rule="nonzero"></path>
                                <path d="M490.4179,230.771568 L500.260565,230.771568 C500.260565,230.771568 503.162919,175.106284 500.260565,170.571706 C497.358212,166.037128 489.029867,164.380306 486.379885,170.571706 C483.729902,176.763107 490.4179,230.771568 490.4179,230.771568 Z" id="Path" fill="#F8F9FC" fill-rule="nonzero"></path>
                                <path d="M485.37035,234.608425 C486.945987,233.194641 488.634082,231.911448 490.417915,230.771553 L500.26058,230.771553 C500.26058,230.771553 513.825736,232.940476 516.601875,235.692882 C519.378014,238.445295 497.484412,236.613493 494.077331,236.613493 C490.67025,236.613493 487.767933,239.857091 482.46804,237.711894 C477.168147,235.566697 483.729902,236.255544 485.37035,234.608425 Z" id="Path" fill="#F8F9FC" fill-rule="nonzero"></path>
                                <path d="M178.372156,285.425773 C187.109584,270.996417 203.498144,287.775175 251.91018,298.985981 C258.711979,306.114752 298.098191,304.538824 302.50017,298.985981 C306.902148,293.433138 297.537253,231.97604 320.232738,237.965066 C342.60579,230.805426 322.315189,303.578399 320.232738,322.455561 C312.755199,341.233095 308.558463,348.561595 300.413979,351.140608 C292.269495,353.719621 259.437473,355.028984 249.302443,351.140608 C188.232762,327.710763 167.209195,295.57925 178.372156,285.425773 Z" id="Path" fill="#F02B41" fill-rule="nonzero"></path>
                                <path d="M228.162794,263.614109 C228.162794,263.614109 222.108434,291.906498 219.317257,306.026422 C216.17727,318.493055 235.058573,318.780342 237.357163,311.227823 L251.969644,270.674078 L228.162794,263.614109 Z" id="Path" fill="#D3F3FD" fill-rule="nonzero"></path>
                                <path d="M257.128993,238.364102 C257.934645,239.605539 257.600157,241.263269 256.376156,242.095173 L233.536509,257.446992 C232.950215,257.841074 232.230408,257.983668 231.538153,257.842867 C230.845898,257.702066 230.238983,257.289625 229.85321,256.69783 L212.485648,230.055098 C212.098889,229.475995 211.972753,228.761224 212.137937,228.08472 C212.30312,227.408216 212.744476,226.83201 213.354603,226.496319 L237.277535,212.98462 C238.592472,212.268626 240.236106,212.667249 241.076951,213.906074 L257.128993,238.364102 Z" id="Path" fill="#63D19E" fill-rule="nonzero"></path>
                                <path d="M219.058987,309.90852 C219.058987,309.90852 216.17727,248.688298 216.17727,244.404447 C216.17727,240.120595 219.868757,231.723211 221.431199,231.926365 C222.993642,232.129519 221.431199,243.911889 221.431199,243.911889 L235.058573,261.808076 L219.058987,309.90852 Z" id="Path" fill="#D3F3FD" fill-rule="nonzero"></path>
                                <path d="M226.098413,252.799771 C226.098413,252.799771 224.359116,254.972441 223.853859,250.718486 C223.616099,248.285412 222.784153,245.948027 221.431185,243.911889 L226.276532,250.275052 L226.098413,252.799771 Z" id="Path" fill="#222222" fill-rule="nonzero" opacity="0.1"></path>
                                <path d="M228.162794,263.614109 C228.162794,263.614109 223.812214,283.525067 221.021066,297.644997 C218.689712,309.552073 219.644709,314.892094 225.617603,316.0017 C230.401249,316.890398 236.155158,315.177243 237.357163,311.227823 L251.969644,270.674078 L228.162794,263.614109 Z" id="Path" fill="#222222" fill-rule="nonzero" opacity="0.1"></path>
                                <path d="M318.321413,210.717706 C318.321413,210.717706 328.261218,210.063768 348.925543,211.502428 C369.589867,212.941087 360.304,228.748724 354.157019,230.335735 C348.010038,231.922747 324.076037,236.613507 324.076037,236.613507 L318.321413,210.717706 Z" id="Path" fill="#D3F3FD" fill-rule="nonzero"></path>
                                <path d="M287.455717,199.99318 C287.455717,199.99318 285.49391,198.03138 295.041351,195.677215 C306.158235,192.799903 297.787872,174.620527 287.455717,167.558041 C273.853879,159.056895 268.753193,165.203876 268.753193,165.203876 L273.199948,201.431839 L287.455717,199.99318 Z" id="Path" fill="#D3F3FD" fill-rule="nonzero"></path>
                                <path d="M257.938248,263.704949 C257.946578,265.498039 257.792091,273.077402 252.537125,277.307803 C244.70123,283.615964 224.131092,275.507105 224.131092,270.90632 C225.219097,253.502827 227.531838,234.498793 232.332816,221.295833 C234.659744,208.093194 320.951653,210.797892 324.152327,210.797892 C327.353,210.797892 330.490499,235.054761 328.779847,235.832296 C327.069195,236.609832 311.999959,239.577941 311.999959,239.577941 C309.990908,263.842576 304.548169,278.308113 305.148314,293.711351 C305.748459,309.114589 253.58804,305.529759 251.910195,298.985981 C249.756388,290.422082 246.240462,254.444803 246.240462,254.444803 L257.938248,263.704949 Z" id="Path" fill="#F8F9FC" fill-rule="nonzero"></path>
                                <path d="M244.23076,214.516129 C243.769064,205.205242 246.778654,193.85307 250.545493,190.852297 C251.837273,188.193055 250.1467,175.231626 250.335417,173.45742 C253.269783,168.212773 256.406453,156.756153 273.743954,157.390105 C289.032311,157.949134 289.688644,167.598255 290.491878,173.087237 C290.685915,174.413182 289.717647,176.049669 288.554912,175.38346 C284.113449,172.838663 276.560107,173.403248 280.058708,181.878737 C283.182849,189.257034 290.738794,181.55717 293.944666,186.460351 C298.628432,193.623874 294.476037,200.517593 297.208243,204.079905 C302.459483,210.926623 302.193597,228.142651 302.193597,228.142651 C303.7722,238.983917 301.329448,250.809219 277.941262,254.274627 C248.744852,258.600316 240.333252,238.255027 240.333252,230.669615 C240.333252,223.084204 244.629632,222.558925 244.23076,214.516129 Z" id="Path" fill="#074E70" fill-rule="nonzero"></path>
                                <path d="M176.489391,55.3764306 C185.868036,59.0497976 191.431112,56.044205 191.431112,56.044205 L190.230758,42.7014734 L177.183172,44.5800912 L176.489391,55.3764306 Z" id="Path" fill="#262D30" fill-rule="nonzero" opacity="0.2"></path>
                                <path d="M182.659812,55.1375168 C182.970646,55.3121473 191.504984,57.9458476 194.982011,52.026182 C200.458379,42.7011659 195.355534,20.0389098 192.36849,15.6819942 C187.118251,8.02419032 172.402287,12.8938137 167.226306,19.6650153 C158.871417,30.5953558 173.260873,49.8492152 182.659812,55.1375168 Z" id="Path" fill="#906E26" fill-rule="nonzero"></path>
                                <path d="M172.6407,30.8515881 C170.776555,27.8653591 184.589527,21.6097971 195.417851,28.6111888 C196.926028,30.5699284 198.637402,21.2757812 197.844829,17.5032219 C196.971649,13.3470648 193.897632,9.04313478 191.683726,9.3812122 C190.155298,9.61480597 190.038502,11.9074471 188.416416,12.088799 C186.619694,12.2895504 185.965212,9.56554591 182.909072,7.79457226 C180.662702,6.49302425 176.913282,5.58700823 174.974385,7.1408129 C172.808988,8.87671317 171.44779,13.7999084 171.44779,13.7999084 C171.44779,13.7999084 166.666354,14.8891927 164.239197,17.9696586 C161.81204,21.0501245 159.585899,43.7829278 171.016477,43.7829278 C171.01647,43.7829278 174.504881,33.8378171 172.6407,30.8515881 Z" id="Path" fill="#212121" fill-rule="nonzero"></path>
                                <path d="M223.795782,126.705432 C223.422388,105.981951 228.039562,85.5635049 234.873738,70.9882352 C236.408658,67.714719 242.595397,71.9338223 242.649841,73.4435653 C243.399074,94.2199744 243.585775,119.424204 238.918318,127.63892 C235.78915,133.146257 223.911321,133.117719 223.795782,126.705432 Z" id="Path" fill="#906E26" fill-rule="nonzero"></path>
                                <path d="M231.948031,77.9482467 C231.948031,77.9482467 232.58621,76.1801619 234.873738,70.9882352 C236.408658,67.714719 240.141475,73.3851526 240.141475,73.3851526 C240.141475,73.3851526 240.874033,78.9739055 231.948031,77.9482467 Z" id="Path" fill="#262D30" fill-rule="nonzero" opacity="0.2"></path>
                                <path d="M235.1842,77.1683662 C231.919329,72.403112 231.130518,56.958008 233.034398,56.1974196 C234.938279,55.4368312 234.872623,60.0720671 237.922763,59.9922099 C242.832322,59.8630998 242.53102,49.6644739 248.004185,49.6611122 C253.477349,49.6577524 253.600338,58.4555022 252.609617,60.9877435 C251.618896,63.5199848 240.972525,79.5468281 235.1842,77.1683662 Z" id="Path" fill="#906E26" fill-rule="nonzero"></path>
                                <path d="M140.323209,135.848831 C140.695001,136.791458 149.691843,124.641794 157.873202,121.996331 C156.026698,122.713422 143.276345,128.023519 140.896746,130.415324 C139.084514,132.316494 140.175958,135.513264 140.323209,135.848831 Z" id="Path" fill="#262D30" fill-rule="nonzero" opacity="0.2"></path>
                                <g id="Group" opacity="0.2" transform="translate(183.053763, 45.763441)" fill="#262D30" fill-rule="nonzero">
                                    <path d="M9.10288468,0.651049301 C9.41080659,1.20491722 9.40383822,1.88011263 9.0845507,2.42750742 C8.81081959,2.96049408 8.42354194,3.42697196 7.95000349,3.79407527 C7.05476915,4.48918219 5.97403109,4.9041388 4.84363833,4.98678495 C3.62270136,5.11421229 2.39836235,4.77920615 1.41238849,4.04791935 C0.87058051,3.63184195 0.489748902,3.04082116 0.334745269,2.37550156 C0.204331127,1.7754796 0.335695238,1.14831368 0.695940376,0.651049301 C0.957622544,1.03959827 1.30482371,1.36303107 1.71090914,1.59655059 C1.99327141,1.73203522 2.30036758,1.80831771 2.61330699,1.82070565 C3.27401431,1.8552714 3.93636444,1.84150092 4.59506419,1.77950425 C5.31326419,1.72433785 6.07108532,1.64892828 6.82506661,1.53754435 C7.20781582,1.48754821 7.587511,1.41644697 7.96241683,1.32456559 C8.40938575,1.2396674 8.81272395,1.00147143 9.10288468,0.651049301 L9.10288468,0.651049301 Z" id="Path"></path>
                                </g>
                                <path d="M189.64209,35.0029543 C189.705637,34.9914348 189.769177,34.9834047 189.832895,34.9708341 C191.101938,34.7397231 192.327802,34.3144791 193.467349,33.7100656 C192.327722,33.1059077 191.101881,32.6807873 189.832895,32.4496403 C189.476798,32.3801585 189.120637,32.3249993 188.764333,32.2768118 C188.308411,31.1673906 187.5598,30.2025877 186.598399,29.4853778 C186.563655,30.434011 186.516168,31.2813926 186.491906,32.1088743 C186.394144,32.1074442 186.296382,32.1018882 186.19862,32.1018882 C184.978916,32.0978528 183.761728,32.2128057 182.564345,32.445114 C181.294623,32.6756628 180.068518,33.1024204 178.930048,33.7100656 C180.068429,34.3179683 181.294546,34.7448544 182.564316,34.9753747 C183.761723,35.2075137 184.978896,35.3224651 186.198591,35.3186005 C186.316432,35.3186005 186.434445,35.3123152 186.552278,35.3102201 C186.582132,35.788591 186.614953,36.2668833 186.66575,36.7462625 C186.793276,37.9378508 187.000435,39.1195644 187.285838,40.2834762 C187.582336,41.5339993 188.035319,42.7421498 188.634072,43.8793457 C189.2444,42.720011 189.64079,41.4601693 189.804236,40.1602295 C189.978669,38.914833 189.998783,37.6526726 189.864121,36.4023503 C189.813671,35.9324506 189.739567,35.4653926 189.64209,35.0029543 Z" id="Path" fill="#262D30" fill-rule="nonzero" opacity="0.2"></path>
                                <path d="M321.094421,95.546964 C322.291828,95.7791031 323.509,95.8940544 324.728696,95.8901898 C324.846536,95.8901898 324.964549,95.8839045 325.082383,95.8818094" id="Path" fill="#262D30" fill-rule="nonzero" opacity="0.2"></path>
                                <path d="M378.926074,107.952296 C378.771049,108.254246 378.794556,108.61697 378.987257,108.896385 C379.179958,109.1758 379.510655,109.326668 379.847986,109.28906 L383.633337,109.28906 C383.997161,109.300069 384.346746,109.147342 384.585868,108.872918 C384.824991,108.598493 384.928446,108.231298 384.867756,107.872403 L383.488003,97.8838884 C383.380373,97.104723 383.063625,97.0687772 382.784118,97.8039955 L378.926074,107.952296 Z" id="Path" fill="#F8F9FC" fill-rule="nonzero"></path>
                                <path d="M390.384503,98.1503675 C389.055883,97.767778 385.853336,96.3230762 384.723594,96.8201316 C385.27052,98.0309846 385.311716,99.4100122 384.838046,100.651354 C384.838046,100.651354 389.349777,99.0676599 390.384503,98.1503675 Z" id="Path" fill="#262D30" fill-rule="nonzero" opacity="0.2"></path>
                                <path d="M310.37161,253.547231 C311.977914,239.634824 330.315976,247.721231 329.263009,242.838508 C327.363218,236.613507 322.443863,237.471314 322.443863,237.471314 L311.977914,239.634795" id="Path" fill="#262D30" fill-rule="nonzero" opacity="0.2"></path>
                                <path d="M314.849448,75.3879252 C314.849448,75.3879252 320.379367,75.7520592 316.652957,78.6204473 C315.646648,79.3950508 319.862018,76.2106589 320.379367,75.7520592 C319.891607,75.6117013 319.593558,72.6591513 319.909705,72.3787859 C318.5812,71.9961249 315.433612,71.454822 314.303948,71.9520132 C320.379367,73.5501298 319.596469,75.3879252 314.849448,75.3879252 Z" id="Path" fill="#262D30" fill-rule="nonzero" opacity="0.2"></path>
                            </g>
                        </g>
                    </g>
                </g>
            </g>
        </g>
    </g>
</svg>
